<?xml version="1.0" encoding="UTF-8"?>
<svg width="53px" height="38px" viewBox="0 0 53 38" version="1.1" xmlns="http://www.w3.org/2000/svg" xmlns:xlink="http://www.w3.org/1999/xlink">
    <!-- Generator: Sketch 51.3 (57544) - http://www.bohemiancoding.com/sketch -->
    <title>Shape</title>
    <desc>Created with Sketch.</desc>
    <defs></defs>
    <g id="Page-1" stroke="none" stroke-width="1" fill="none" fill-rule="evenodd">
        <g id="Assistant-weather" transform="translate(-180.000000, -296.000000)" fill="#FFFFFF" fill-rule="nonzero">
            <g id="hk_cloudy2" transform="translate(180.000000, 296.000000)">
                <path d="M42.0645555,33.3354445 L42.122,33.3354445 C43.8807778,33.3195556 45.4708889,32.6045556 46.6307778,31.4458889 C47.7882223,30.2713334 48.5044445,28.6690001 48.5044445,26.8943334 C48.5044445,25.3054445 47.9458889,23.8595556 47.0145556,22.7143334 C46.0404445,21.5972223 44.6972223,20.7954445 43.1523334,20.5400001 C42.1782223,20.3664445 41.4913334,19.5072223 41.4913334,18.5490001 C41.4913334,14.7124445 39.9440001,11.2352223 37.4262223,8.74555559 C34.9072223,6.22533339 31.4434445,4.66700006 27.6081111,4.66700006 C24.7737778,4.66700006 22.1545556,5.49688893 19.9631111,6.94033339 C17.7166667,8.43022226 15.9273333,10.5630001 14.8395556,13.0673334 C14.5242223,13.8116667 13.8092223,14.2687779 13.0367778,14.2834445 C10.5593333,14.4411112 8.341,15.5582223 6.724,17.2754445 C5.13511113,18.9633334 4.13411113,21.2696667 4.13411113,23.8021112 C4.13411113,26.4347779 5.22188893,28.8254445 6.93911113,30.543889 C8.65633333,32.2623334 11.0604445,33.3354445 13.6674445,33.3354445 L42.0645555,33.3354445 Z M49.4797778,34.2936667 C47.589,36.1978889 44.9844445,37.3418889 42.122,37.3712222 L42.0645555,37.3712222 L13.6674445,37.3712222 C9.94455559,37.3712222 6.53822226,35.8556667 4.07666667,33.3928889 L4.10355554,33.3928889 C1.62855554,30.9301111 0.124,27.5237777 0.124,23.8021111 C0.124,20.2099999 1.51366667,16.9319999 3.7882222,14.4985555 C5.85133333,12.3523333 8.59888887,10.849 11.6605555,10.4053333 C13.0624444,7.62844446 15.183,5.28055554 17.7716667,3.59144446 C20.5925555,1.7177778 23.9988889,0.63 27.6068889,0.63 C32.5434444,0.63 37.0241111,2.64788887 40.2593333,5.88311113 C43.1645555,8.77244446 45.0981111,12.653 45.4415555,16.9894445 C47.2724444,17.6188889 48.8772222,18.7078889 50.0652222,20.1525556 C51.6235555,21.9700001 52.5402222,24.3313334 52.5402222,26.8955556 C52.5414445,29.7836667 51.3534445,32.4187778 49.4797778,34.2936667 Z" id="Shape"></path>
            </g>
        </g>
    </g>
</svg>