<?xml version="1.0" encoding="UTF-8"?>
<svg width="45px" height="44px" viewBox="0 0 45 44" version="1.1" xmlns="http://www.w3.org/2000/svg" xmlns:xlink="http://www.w3.org/1999/xlink">
    <!-- Generator: Sketch 51.3 (57544) - http://www.bohemiancoding.com/sketch -->
    <title>Shape</title>
    <desc>Created with Sketch.</desc>
    <defs></defs>
    <g id="Page-1" stroke="none" stroke-width="1" fill="none" fill-rule="evenodd">
        <g id="Assistant-snow" transform="translate(-184.000000, -293.000000)" fill="#FFFFFF" fill-rule="nonzero">
            <g id="snow" transform="translate(184.000000, 293.000000)">
                <path d="M33.8781874,7.45418499 C31.4969516,3.01740017 26.8143182,0 21.4264074,0 C15.6148031,0 10.6238652,3.51066905 8.45653324,8.52661717 C3.62550316,9.54935266 0,13.8376945 0,18.9733771 C0,24.8712456 4.78114848,29.6523941 10.679017,29.6523941 C10.8147468,29.6523941 10.9498294,29.6495278 11.0843573,29.6444888 L23.4356344,29.6444888 L22.9343678,29.9338855 L22.9345064,29.9341167 C22.2496162,30.3356662 22.0161109,31.2152751 22.413731,31.9039099 C22.811351,32.5925447 23.6898042,32.8301644 24.3800108,32.4378146 L24.3801494,32.4380457 L24.9643055,32.1007552 L24.9643055,32.688286 L24.9645367,32.688286 C24.9698531,33.4821854 25.6148934,34.1242208 26.410041,34.1242208 C27.2052348,34.1242208 27.8502289,33.4822316 27.8555453,32.688286 L27.8557765,32.688286 L27.8557765,32.1488801 L28.3502011,32.4343473 L28.3503398,32.4341162 C29.0405463,32.826466 29.9190457,32.5888463 30.3166195,31.9002115 C30.7141933,31.2115767 30.4807343,30.3319678 29.7958441,29.9304183 L29.7959828,29.9301871 L29.3010959,29.6444888 L33.6771813,29.6444888 L33.6771813,29.6299727 C39.686879,29.4946127 44.517077,24.580878 44.517077,18.5386809 C44.5171234,12.5639791 39.7941779,7.69323781 33.8781874,7.45418499 Z M33.6772277,26.3899312 C33.6772277,26.3899312 32.8666857,26.4087467 32.662906,26.3853545 L10.6600628,26.3853545 C10.6557635,26.3853545 10.6515104,26.3855395 10.647211,26.3855395 C10.6424494,26.3855395 10.637734,26.3853545 10.6329261,26.3853545 L10.5698228,26.3853545 L10.5698228,26.3845686 C6.53745373,26.3430083 3.28132441,23.0618688 3.28132441,19.0196528 C3.28132441,14.9515946 6.5791528,11.6537662 10.647211,11.6537662 C10.6921461,11.6537662 10.73685,11.6546446 10.781554,11.6554767 C11.051072,10.4844832 11.5087442,9.38556154 12.120638,8.39167326 C12.1187888,8.39144211 12.1169396,8.39111849 12.1150904,8.39084115 C12.7501915,7.36144863 13.5512102,6.44531843 14.4807932,5.67966525 C14.486387,5.6750423 14.4920732,5.67055803 14.497667,5.66593509 C14.5469476,5.62548428 14.5966444,5.58554196 14.6466184,5.5459695 C14.6721371,5.52572098 14.6976558,5.50551869 14.7233132,5.48550132 C14.7457808,5.46802656 14.7684795,5.45082919 14.7910394,5.43353934 C16.6345336,4.01942484 18.9406928,3.17832515 21.443651,3.17832515 C26.3386627,3.17832515 30.4824449,6.39307907 31.879963,10.8263505 C32.4245928,10.7075406 32.990026,10.6443911 33.5702526,10.6443911 C34.1134493,10.6443911 34.6437943,10.6993118 35.1561097,10.8037443 C35.1560173,10.8033744 35.1559248,10.8030046 35.1558786,10.802681 C35.3455583,10.84156 35.5326028,10.8876971 35.7170586,10.9398902 C35.7288933,10.9432187 35.7406819,10.9466397 35.7524704,10.9500145 C35.7956488,10.9624502 35.8386422,10.9752558 35.8815432,10.988385 C35.9040108,10.9952269 35.926432,11.0021614 35.9488071,11.0092344 C35.9782091,11.0185266 36.0074261,11.0281423 36.0366895,11.0377581 C36.0695124,11.0485296 36.1022891,11.0593472 36.1349272,11.0705348 C36.1459298,11.0743256 36.1568399,11.0783014 36.1677963,11.0820921 C39.2527841,12.1563273 41.466854,15.0898671 41.466854,18.5409463 C41.4669003,22.8663642 37.9890542,26.3326529 33.6772277,26.3899312 Z M16.5634327,32.5810336 C16.2431084,32.026187 15.5352884,31.8347506 14.9791474,32.150868 L14.9790549,32.1506831 L14.5797244,32.3812296 L14.5797244,31.8500063 L14.5795395,31.8500063 C14.5752401,31.2103286 14.0555742,30.6930666 13.4148794,30.6930666 C12.7741846,30.6930666 12.2545187,31.2103286 12.2502194,31.8500063 L12.2500345,31.8500063 L12.2500345,32.4200162 L11.7783547,32.1477243 L11.7782623,32.1479093 C11.2221675,31.8317918 10.5143474,32.0232282 10.193977,32.5780749 C9.87365265,33.1329215 10.0617606,33.8416199 10.6136022,34.1651802 L10.6135097,34.1653651 L11.0515806,34.4182867 L10.6144806,34.6706536 L10.614573,34.6708385 C10.0627314,34.9943989 9.87462348,35.7030973 10.1949478,36.2579438 C10.5152721,36.8127904 11.2230921,37.0042269 11.7792331,36.6881094 L11.7793256,36.6882944 L12.2499882,36.4165573 L12.2499882,36.8899013 L12.2501731,36.8899013 C12.2544725,37.529579 12.7741384,38.046841 13.4148332,38.046841 C14.055528,38.046841 14.5751939,37.529579 14.5794932,36.8899013 L14.5796781,36.8899013 L14.5796781,36.4552976 L14.9780379,36.6852894 L14.9781303,36.6851045 C15.5342251,37.0012219 16.2420452,36.8097855 16.5624157,36.2549389 C16.88274,35.7000923 16.694632,34.9913939 16.1427904,34.6678336 L16.1428829,34.6676487 L15.7109606,34.4182867 L16.1438999,34.1683238 L16.1438075,34.1681388 C16.6956491,33.8445785 16.883757,33.1358801 16.5634327,32.5810336 Z M24.0635698,39.4540674 C23.7971491,38.9926044 23.2084163,38.83339 22.7458901,39.0962972 L22.7457976,39.0961585 L22.4136386,39.2879185 L22.4136386,38.8460569 L22.4134536,38.8460569 C22.409894,38.3140476 21.977648,37.8837896 21.4447605,37.8837896 C20.9118729,37.8837896 20.4796732,38.3140014 20.4760673,38.8460569 L20.4758824,38.8460569 L20.4758824,39.3201405 L20.0835787,39.0936621 L20.0834862,39.0938007 C19.62096,38.8308935 19.0322272,38.9901079 18.7658065,39.4515709 C18.4993858,39.9130339 18.6558265,40.5025064 19.1147931,40.7716084 L19.1147006,40.7717471 L19.4790816,40.9820913 L19.1155327,41.1919733 L19.1156252,41.192112 C18.6566586,41.461214 18.5002179,42.0506403 18.7666386,42.5121494 C19.0330593,42.9736124 19.6217921,43.1328269 20.0843183,42.8699196 L20.0844108,42.8700583 L20.4758823,42.6440422 L20.4758823,43.0377327 L20.4760672,43.0377327 C20.4796269,43.569742 20.9118728,44 21.4447604,44 C21.977648,44 22.4098939,43.5697882 22.4134536,43.0377327 L22.4136385,43.0377327 L22.4136385,42.6762642 L22.7449654,42.8675619 L22.7450579,42.8674233 C23.2075841,43.1303305 23.7963169,42.9711161 24.0627376,42.5096531 C24.3291583,42.0481901 24.1727176,41.4587176 23.713751,41.1896156 L23.7138435,41.189477 L23.354594,40.9820452 L23.7146756,40.7741511 L23.7145832,40.7740124 C24.1735498,40.5050029 24.3299905,39.9155766 24.0635698,39.4540674 Z M33.8603428,36.909179 C33.5939221,36.447716 33.0051893,36.2885016 32.542663,36.5514088 L32.5425706,36.5512702 L32.2104115,36.7430302 L32.2104115,36.3011685 L32.2102266,36.3011685 C32.2066669,35.7691593 31.774421,35.3389013 31.2415334,35.3389013 C30.7086459,35.3389013 30.2763999,35.7691131 30.2728402,36.3011685 L30.2726553,36.3011685 L30.2726553,36.7752521 L29.8803517,36.5487737 L29.8802592,36.5489124 C29.4177329,36.2860052 28.8290001,36.4452196 28.5625795,36.9066826 C28.2961588,37.3681456 28.4525994,37.957618 28.9115661,38.22672 L28.9114736,38.2268587 L29.2758546,38.437203 L28.9123057,38.647085 L28.9123982,38.6472237 C28.4534316,38.9163257 28.2969909,39.5057519 28.5634116,39.9672611 C28.8298322,40.4287241 29.4185651,40.5879848 29.8810913,40.3250313 L29.8811838,40.32517 L30.2726553,40.0991539 L30.2726553,40.4928444 L30.2728402,40.4928444 C30.2763999,41.0248536 30.7086458,41.4551117 31.2415334,41.4551117 C31.774421,41.4551117 32.2066669,41.0248998 32.2102266,40.4928444 L32.2104115,40.4928444 L32.2104115,40.1313758 L32.5417384,40.3226736 L32.5418308,40.3225349 C33.0043571,40.5854421 33.5930899,40.4262277 33.8595106,39.9647647 C34.1259312,39.5033017 33.9694906,38.9138293 33.510524,38.6447273 L33.5106165,38.6445886 L33.1513669,38.4371568 L33.5114486,38.2292627 L33.5113561,38.229124 C33.9703228,37.9601145 34.1267635,37.370642 33.8603428,36.909179 Z" id="Shape"></path>
            </g>
        </g>
    </g>
</svg>